100 5 51 51 5 
16 2
4 30
42 16
20 26
22 8
30 4
46 32
26 50
42 22
10 34
46 26
24 2
8 8
18 36
44 40
24 46
12 18
6 2
8 20
22 24
48 36
38 2
30 24
38 32
14 30
2 10
18 44
46 48
4 36
30 38
10 2
38 6
42 32
28 50
30 2
4 38
32 4
26 2
42 12
42 30
30 18
46 4
14 20
12 50
4 14
8 12
44 30
18 22
6 6
2 24
16 40
42 2
4 10
4 28
32 38
40 6
40 44
16 46
12 14
6 4
22 18
38 24
24 18
34 44
42 24
50 6
28 30
38 34
10 14
14 16
40 8
16 50
26 36
12 4
50 20
24 28
4 50
44 24
4 26
6 26
50 24
8 34
34 40
50 16
36 24
30 6
20 8
40 50
36 46
30 40
10 10
20 46
50 30
30 28
50 34
26 4
16 36
20 4
12 42
36 16
