100 7 51 51
0 14 1 3 
1 2 0 14 15 16 
2 1 16 4 3 0 
3 0 1 2 4 5 6 
4 3 2 16 18 5 
5 4 18 19 22 6 3 
6 3 5 22 8 7 9 10 11 12 13 
7 8 9 6 
8 7 6 22 31 34 24 23 10 9 
9 7 8 10 6 
10 9 8 24 23 11 6 
11 12 6 10 23 
12 11 23 25 13 6 
13 6 12 25 26 
14 27 15 1 0 
15 14 27 29 17 16 1 
16 2 1 15 17 18 4 
17 16 15 29 20 19 18 
18 17 19 5 4 16 
19 20 21 22 5 18 17 
20 19 17 29 30 21 
21 30 31 22 19 20 
22 21 31 8 6 5 19 
23 24 25 12 11 10 8 
24 23 8 34 35 25 
25 37 38 39 26 13 12 24 35 
26 13 25 39 41 
27 42 28 29 15 14 
28 29 27 42 44 45 
29 45 47 46 30 20 17 15 27 28 
30 20 29 46 32 31 21 
31 21 30 32 34 8 22 
32 31 30 46 48 33 34 
33 48 49 36 34 32 
34 24 8 31 32 33 36 35 
35 36 37 25 24 34 
36 35 34 33 49 50 38 37 
37 35 36 38 25 
38 39 25 37 36 50 51 40 
39 38 40 41 26 25 
40 38 51 52 41 39 
41 26 39 40 52 
42 43 44 28 27 
43 53 54 44 42 
44 43 54 56 45 28 42 
45 29 28 44 56 57 47 46 
46 47 48 32 30 29 45 
47 46 29 45 57 58 48 
48 33 32 46 47 58 49 
49 48 58 59 60 50 36 33 
50 61 63 51 38 36 49 60 
51 40 38 50 63 65 66 52 
52 41 40 51 66 
53 67 55 54 43 
54 53 55 56 44 43 
55 54 53 67 68 56 
56 54 55 68 71 57 45 44 
57 47 45 56 71 72 58 
58 59 49 48 47 57 72 
59 60 49 58 72 74 
60 59 74 62 61 50 49 
61 62 63 50 60 
62 61 60 75 64 63 
63 61 62 64 65 51 50 
64 62 75 92 76 65 63 
65 77 66 51 63 64 76 
66 52 51 65 77 78 
67 79 69 68 55 53 
68 69 70 71 56 55 67 
69 68 67 79 80 70 
70 69 80 81 71 68 
71 82 83 73 72 57 56 68 70 81 
72 73 74 59 58 57 71 
73 72 71 83 84 87 74 
74 75 62 60 59 72 73 87 89 
75 74 89 92 64 62 
76 77 65 64 92 93 78 
77 65 76 78 66 
78 66 77 76 93 
79 80 69 67 
80 94 81 70 69 79 
81 82 71 70 80 94 95 
82 81 95 96 83 71 
83 84 73 71 82 96 85 
84 83 85 86 88 87 73 
85 84 83 96 97 86 
86 85 97 98 88 84 
87 88 89 74 73 84 
88 87 84 86 98 90 89 
89 87 88 90 91 92 75 74 
90 88 98 99 91 89 
91 99 93 92 89 90 
92 91 93 76 64 75 89 
93 78 76 92 91 99 
94 95 81 80 
95 96 82 81 94 
96 97 85 83 82 95 
97 98 86 85 96 
98 99 90 88 86 97 
99 93 91 90 98 
